<?xml version="1.0" encoding="utf-8"?>
<!-- Generator: Adobe Illustrator 17.1.0, SVG Export Plug-In . SVG Version: 6.00 Build 0)  -->
<!DOCTYPE svg PUBLIC "-//W3C//DTD SVG 1.1//EN" "http://www.w3.org/Graphics/SVG/1.1/DTD/svg11.dtd">
<svg version="1.1" xmlns="http://www.w3.org/2000/svg" xmlns:xlink="http://www.w3.org/1999/xlink" x="0px" y="0px"
	 viewBox="0 0 16 16" enable-background="new 0 0 16 16" xml:space="preserve">
<g id="Guide_Box" display="none">
	<g display="inline">
		<path fill="#FF7BAC" d="M5,6.3v14H-9v-14H5 M6,5.3h-16v16H6V5.3L6,5.3z"/>
	</g>
	<g display="inline">
		<path fill="#FF7BAC" d="M28.5,6.3v14h-14v-14H28.5 M29.5,5.3h-16v16h16V5.3L29.5,5.3z"/>
	</g>
</g>
<g id="Icons">
	<g>
		<rect x="1" y="4" width="10" height="1"/>
		<rect x="1" y="10" width="10" height="1"/>
		<polygon points="14,3 14,2 13,2 12,2 12,3 13,3 13,6 12,6 12,7 13,7 14,7 15,7 15,6 14,6 		"/>
		<polygon points="12,8 12,9 14,9 14,10 12,10 12,11 12,12 12,13 15,13 15,12 13,12 13,11 15,11 15,10 15,9 15,8 14,8 		"/>
	</g>
</g>
</svg>
